{
  "current": {
    "show_announcement_bar": true,
    "show_popup": false,
    "show_fixed_message": false,
    "header_layout": "centered",
    "footer_layout": "classic",
    "product_layout": "classic",
    "image_loading_style": "fade-in",
    "logo_mobile": "shopify:\/\/shop_images\/logo_dcab9800-04f1-48f5-9216-8bbd2845ae65.png",
    "logo_mobile_inverted": "shopify:\/\/shop_images\/victorem-logo-inverted.png",
    "mobile_logo_width": 200,
    "logo_mobile_position": "center",
    "logo_menu_position": "left",
    "show_search_icon_mobile": false,
    "mobile_sidebar_position": "below",
    "icon_style": "icons",
    "mobile_menu_background_color": "rgba(0,0,0,0)",
    "mobile_menu_opacity": 100,
    "mobile_menu_link_color": "rgba(0,0,0,0)",
    "mobile_menu_link_hover_color": "rgba(0,0,0,0)",
    "button_primary_padding": "large",
    "button_primary_bg_color": "#f7fb4e",
    "button_primary_bg_color_transparency": 100,
    "button_primary_border_color": "rgba(0,0,0,0)",
    "button_primary_text_color": "#171e29",
    "button_primary_bg_color--highlight": "#dbde47",
    "button_primary_bg_color_transparency--highlight": 100,
    "button_primary_border_color--highlight": "rgba(0,0,0,0)",
    "button_primary_text_color--highlight": "#171e29",
    "button_primary_border_radius": 35,
    "button_secondary_padding": "large",
    "button_secondary_bg_color": "rgba(0,0,0,0)",
    "button_secondary_bg_color_transparency": 0,
    "button_secondary_border_color": "#171b2b",
    "button_secondary_text_color": "#171b2b",
    "button_secondary_bg_color--highlight": "#dbde47",
    "button_secondary_bg_color_transparency--highlight": 100,
    "button_secondary_border_color--highlight": "rgba(0,0,0,0)",
    "button_secondary_text_color--highlight": "#171e29",
    "button_secondary_border_radius": 35,
    "button_link_padding": "regular",
    "button_link_text_color": "#000000",
    "button_link_text_color--highlight": "#ccc",
    "button_link_underline_style": "solid",
    "button_link_underline_thickness": 1,
    "button_cart_padding": "large",
    "button_cart_bg_color": "#f7fb4e",
    "button_cart_bg_color--highlight": "#dbde47",
    "button_cart_border_color": "rgba(0,0,0,0)",
    "button_cart_border_color--highlight": "rgba(0,0,0,0)",
    "button_cart_text_color": "#171b2b",
    "button_cart_text_color--highlight": "#ffffff",
    "button_cart_icon": "",
    "button_cart_icon_position": "left",
    "button_cart_border_radius": 35,
    "icon": "icon_solid",
    "toggle_icon_style": "plus_and_minus",
    "social_media_share_style": "squared",
    "breadcrumb_capitalization": "none",
    "breadcrumb_separator": "arrow",
    "breadcrumb_size": "regular",
    "dropdown_style": "vertical",
    "dropdown_position": "below-parent",
    "dropdown_link_spacing": "medium",
    "use_placeholders": false,
    "form_button_style": "button--primary",
    "display_heading_divider": false,
    "heading_divider_animation": "none",
    "heading_divider_style": "short",
    "heading_divider_width": 2,
    "toggle_sidebar": false,
    "tab_style": "underline",
    "table_styles_enabled": true,
    "qty_box_style": "box",
    "qty_border_radius": 0,
    "tag_style": "solid",
    "mega_menu_1": true,
    "mega_menu_2": false,
    "mega_menu_3": false,
    "mega_menu_4": false,
    "mega_menu_5": false,
    "mega_menu_6": false,
    "mega_menu_7": false,
    "mega_menu_8": false,
    "mega_menu_9": false,
    "mega_menu_10": false,
    "shop_bg_color": "#ffffff",
    "border_color": "#d3d3d3",
    "regular_color": "#171b2b",
    "link_color": "#171b2b",
    "link_hover_color": "#4ebcc2",
    "heading_color": "#171b2b",
    "banner_heading_color": "#ffffff",
    "divider_color": "#000000",
    "logo_text": "#ffffff",
    "header_background": "#171e29",
    "header_link_color": "#ffffff",
    "header_link_hover_color": "#f7fb4e",
    "header_background_inverted": "#ffffff",
    "header_link_color_inverted": "#3f3f3f",
    "header_link_hover_color_inverted": "#51b2f5",
    "header_cart_badge_color": "#4ebcc2",
    "cart_background_color": "#fff",
    "show_dropdown_shadow": true,
    "dropdown_background": "#ffffff",
    "dropdown_background_opacity": 100,
    "dropdown_link_color": "#000000",
    "dropdown_link_hover_color": "#4ebcc2",
    "footer_background": "#171b2b",
    "footer_border": "rgba(0,0,0,0)",
    "footer_link_color": "#ffffff",
    "footer_link_hover_color": "#000000",
    "footer_text_color": "#ffffff",
    "sale_color": "#e790a9",
    "was_price_color": "#808080",
    "product_hover_text_color": "#000000",
    "product_hover_bg_color": "#ffffff",
    "banner_bestseller": "#e790a9",
    "banner_comingsoon": "#f7fb4e",
    "banner_new": "#171b2b",
    "banner_preorder": "#4ebcc2",
    "banner_sale": "#4ebcc2",
    "banner_staffpick": "#171b2b",
    "qty_icon_color": "#fff",
    "qty_icon_hover_color": "#4ebcc2",
    "qty_background_color": "#000",
    "qty_background_hover_color": "#f7fb4e",
    "regular__font": "montserrat_n4",
    "regular_font_size": 14,
    "logo__font": "montserrat_n6",
    "logo_font_size": 20,
    "logo_font_style": "uppercase",
    "nav__font": "montserrat_n6",
    "nav_font_size": 14,
    "nav_letter_spacing": 2,
    "nav_font_style": "uppercase",
    "dropdown_heading_font_size": 24,
    "dropdown_font_size": 14,
    "dropdown_letter_spacing": 2,
    "dropdown_font_style": "uppercase",
    "button__font": "montserrat_n6",
    "button_letter_spacing": 2,
    "button_font_style": "uppercase",
    "heading__font": "montserrat_n7",
    "heading_size": 32,
    "heading_letter_spacing": 0,
    "heading_font_style": "uppercase",
    "preheading_font": "montserrat_n6",
    "preheading_size": 14,
    "preheading_style": "uppercase",
    "subheading_font": "montserrat_n5",
    "subheading_size": 16,
    "subheading_style": "none",
    "banner_heading__font": "montserrat_n7",
    "banner_heading_size": 48,
    "banner_heading_style": "uppercase",
    "banner_text__font": "montserrat_n4",
    "banner_text_size": 14,
    "banner_text_letter_spacing": 0,
    "footer_heading_font_size": 18,
    "footer_font_size": 14,
    "search_option": "everything",
    "search_title": "Search",
    "search_placeholder": "What are you looking for?",
    "search_heading_color": "#000",
    "search_display_style": "popup",
    "search_popup_bg": "#fff",
    "search_menu": "",
    "enable_autocomplete": true,
    "search_to_display": 5,
    "show_secondary_image": false,
    "display_vendor": false,
    "thumbnail_hover_enabled": false,
    "thumbnail_text_alignment": "center",
    "stickers_enabled": true,
    "sticker_shape": "square",
    "sticker_position": "left",
    "collection_swatches": true,
    "collection_swatches_shape": "square",
    "enable_shopify_review_comments": true,
    "enable_shopify_collection_badges": true,
    "display_product_quantity": true,
    "limit_quantity": false,
    "display_inventory_left": false,
    "inventory_threshold": 10,
    "free_price_text": "Free",
    "product_form_style": "swatches",
    "swatch_style": "square",
    "notify_me_form": true,
    "notify_me_description": "<p>Notify me when this product is available:<\/p>",
    "size_chart": "",
    "enable_quickshop": true,
    "quickshop_button_style": "button--secondary",
    "quickshop_show_vendor": false,
    "quickshop_show_price_savings": true,
    "show_dynamic_checkout_button": false,
    "quickshop_truncate_words": false,
    "quickshop_truncate_words_limit": 20,
    "qs_popup_color": "#fff",
    "show_product_gallery_thumbnails": true,
    "quickshop_arrows": true,
    "quickshop_magnify_images": false,
    "quickshop_speed": 0,
    "quickshop_gallery_transition_styles": "slide",
    "quickshop_thumbnail_position": "bottom-thumbnails",
    "enable_thumbnail_slider": true,
    "quickshop_gallery_position": "left",
    "video_looping": false,
    "cart_action": "drawer",
    "show_lock_icon": true,
    "cart_icon": "bag",
    "display_special_instructions": false,
    "display_tos_checkbox": false,
    "tos_page": "terms-of-service",
    "display_savings": false,
    "display_ajax_quantity_box": true,
    "cart_message": "",
    "go_to_checkout": true,
    "enable_shipping_calculator": false,
    "shipping_calculator_default_country": "United States",
    "show_multiple_currencies": false,
    "currency_format": "money_with_currency_format",
    "supported_currencies": "USD CAD INR GBP AUD EUR JPY",
    "default_currency": "USD",
    "disqus_enabled": false,
    "disqus_shortname": "",
    "twitter_link": "",
    "facebook_link": "",
    "youtube_link": "",
    "vimeo_link": "",
    "pinterest_link": "",
    "tumblr_link": "",
    "instagram_link": "",
    "snapchat_link": "",
    "houzz_link": "",
    "linkedin_link": "",
    "dribbble_link": "",
    "behance_link": "",
    "flickr_link": "",
    "email_link": "",
    "og_image_fallback": "shopify:\/\/shop_images\/Facebook-preview-image.jpg",
    "favicon": "shopify:\/\/shop_images\/fav-victorem.png",
    "checkout_header_image": "shopify:\/\/shop_images\/bg-contact.jpg",
    "checkout_logo_image": "shopify:\/\/shop_images\/Frame.png",
    "checkout_logo_position": "left",
    "checkout_logo_size": "medium",
    "checkout_body_background_image": "",
    "checkout_body_background_color": "#fff",
    "checkout_input_background_color_mode": "white",
    "checkout_sidebar_background_image": "",
    "checkout_sidebar_background_color": "#fafafa",
    "checkout_heading_font": "-apple-system, BlinkMacSystemFont, 'Segoe UI', Roboto, Helvetica, Arial, sans-serif, 'Apple Color Emoji', 'Segoe UI Emoji', 'Segoe UI Symbol'",
    "checkout_body_font": "-apple-system, BlinkMacSystemFont, 'Segoe UI', Roboto, Helvetica, Arial, sans-serif, 'Apple Color Emoji', 'Segoe UI Emoji', 'Segoe UI Symbol'",
    "checkout_accent_color": "#4ebcc2",
    "checkout_button_color": "#171b2b",
    "checkout_error_color": "#e790a9",
    "sections": {
      "announcement-bar": {
        "type": "announcement-bar",
        "settings": {
          "icon_label": "rocket",
          "text": "<p>Free shipping for orders above $50!<\/p>",
          "alignment": "center",
          "size": "regular",
          "button_label": "",
          "link": "",
          "button_style": "button--primary",
          "background": "#4ebcc2",
          "text_color": "#ffffff",
          "width": "wide",
          "homepage_only": false,
          "enable_sticky": false,
          "show_close_icon": true,
          "css_class": "",
          "custom_css": ""
        }
      },
      "header__top-bar": {
        "type": "header__top-bar",
        "blocks": {
          "header__top-bar-0": {
            "type": "text",
            "settings": {
              "text": "123 Main Street, Pleasantville USA"
            }
          },
          "header__top-bar-1": {
            "type": "social_media",
            "settings": {}
          }
        },
        "block_order": [
          "header__top-bar-0",
          "header__top-bar-1"
        ],
        "settings": {
          "show_top_bar": false,
          "font": "open_sans_n4",
          "font_style": "none",
          "font_size": 14,
          "letter_spacing": 0,
          "background": "rgba(0,0,0,0)",
          "link_color": "rgba(0,0,0,0)",
          "link_hover_color": "rgba(0,0,0,0)",
          "text_color": "rgba(0,0,0,0)",
          "width": "standard",
          "css_class": "",
          "custom_css": ""
        }
      },
      "header-classic": {
        "type": "header-classic",
        "settings": {
          "logo": "",
          "logo_width": 200,
          "main_linklist": "header-menu-left",
          "menu_alignment": "center",
          "display_search": true,
          "icon_style": "icons_text",
          "enable_overlay": false,
          "show_text_shadow": false,
          "overlay_link_color": "rgba(0,0,0,0)",
          "overlay_link_hover_color": "rgba(0,0,0,0)",
          "overlay_background": "rgba(0,0,0,0)",
          "overlay_background_opacity": 0,
          "overlay_logo": "",
          "overlay_logo_width": 80,
          "enable_sticky": false,
          "sticky_background_opacity": 50,
          "scroll_logo_width": 80,
          "width": "standard",
          "vertical_alignment": "top",
          "css_class": "",
          "custom_css": ""
        }
      },
      "mega-menu-1": {
        "type": "mega-menu-1",
        "blocks": {
          "1587964792936": {
            "type": "image",
            "settings": {
              "image": "shopify:\/\/shop_images\/1-644_x_644.jpg",
              "image_link": "shopify:\/\/collections\/stay-active-at-home",
              "image_caption": "<p>Stay Active At Home<\/p>"
            }
          },
          "1587964810992": {
            "type": "image",
            "settings": {
              "image": "shopify:\/\/shop_images\/3-644_x_644_Pull_Up_Bands-02.jpg",
              "image_link": "shopify:\/\/collections\/new-arrivals",
              "image_caption": "<p>New Releases<\/p>"
            }
          },
          "1587964884152": {
            "type": "image",
            "settings": {
              "image": "shopify:\/\/shop_images\/all-products.jpg",
              "image_link": "shopify:\/\/collections\/all-products",
              "image_caption": "<p>All Victorem Products<\/p>"
            }
          },
          "1587964888651": {
            "type": "image",
            "settings": {
              "image": "shopify:\/\/shop_images\/rsz_po1st.jpg",
              "image_link": "shopify:\/\/collections\/resistance-bands",
              "image_caption": "<p>Resistance Bands<\/p>"
            }
          },
          "1587964891871": {
            "type": "image",
            "settings": {
              "image": "shopify:\/\/shop_images\/victorem_lacrosse_rebounder_1.jpg",
              "image_link": "shopify:\/\/products\/lacrosse-rebounder",
              "image_caption": "<p>lacrosse Gear<\/p>"
            }
          }
        },
        "block_order": [
          "1587964792936",
          "1587964810992",
          "1587964884152",
          "1587964888651",
          "1587964891871"
        ],
        "settings": {
          "parent_link": "shop",
          "enable_mega_menu_border": false,
          "mega_menu_background_color": "#ffffff",
          "mega_menu_text_color": "#171b2b",
          "show_mega_bottom_bar": true,
          "mega_bottom_bar_icon": "",
          "mega_bottom_bar_text": "Free Shipping for orders above $50",
          "mega_bottom_bar_link": "",
          "size": "regular",
          "bottom_banner_bg": "#4ebcc2",
          "bottom_banner_text": "#ffffff",
          "css_class": "",
          "custom_css": ".mega-menu__content.content {\ntext-align: center;\npadding-top: 16px;\n}"
        }
      },
      "footer__icon-bar": {
        "type": "footer__icon-bar",
        "blocks": {
          "footer__icon-bar-0": {
            "type": "text",
            "settings": {
              "icon": "delivery.svg",
              "text": "100% Natural materials",
              "link": ""
            }
          },
          "footer__icon-bar-1": {
            "type": "text",
            "settings": {
              "icon": "truck",
              "text": "Ships anywhere Worldwide",
              "link": ""
            }
          },
          "footer__icon-bar-2": {
            "type": "text",
            "settings": {
              "icon": "lock",
              "text": "Safe & Secure checkout",
              "link": ""
            }
          },
          "footer__icon-bar-3": {
            "type": "text",
            "settings": {
              "icon": "like",
              "text": "100% Satisfaction Guarantee",
              "link": ""
            }
          }
        },
        "block_order": [
          "footer__icon-bar-0",
          "footer__icon-bar-1",
          "footer__icon-bar-2",
          "footer__icon-bar-3"
        ],
        "settings": {
          "show_icon_bar": false,
          "alignment": "center",
          "icon_position": "row",
          "size": "large",
          "background": "#ffffff",
          "link_color": "#000000",
          "link_hover_color": "#000000",
          "text_color": "#171b2b",
          "width": "wide",
          "css_class": "",
          "custom_css": ".section {\nborder-top: 1px solid #D0D1D1;\n}\n\n.icon-bar__text {\nfont-size: 16px;\nline-height: 24px;\nletter-spacing:2px;\ntext-transform: uppercase;\nfont-weight: 700 !important;\n}\n\n.icon-bar__block {\nmax-width: 280px;\n}"
        }
      },
      "footer-classic": {
        "type": "footer-classic",
        "blocks": {
          "footer-classic-0": {
            "type": "logo",
            "settings": {
              "logo": "shopify:\/\/shop_images\/Frame.png",
              "size": "small",
              "text": "",
              "social_icons_footer": false
            }
          },
          "footer-classic-1": {
            "type": "link_list",
            "settings": {
              "menu": "other-collections",
              "social_icons_footer": false
            }
          },
          "1587757161333": {
            "type": "link_list",
            "settings": {
              "menu": "footer-1",
              "social_icons_footer": false
            }
          },
          "1587757165586": {
            "type": "link_list",
            "settings": {
              "menu": "footer-2",
              "social_icons_footer": false
            }
          }
        },
        "block_order": [
          "footer-classic-0",
          "footer-classic-1",
          "1587757161333",
          "1587757165586"
        ],
        "settings": {
          "copyright_text": "",
          "display_designed_by": false,
          "display_shopify": false,
          "display_payment_methods": true,
          "css_class": "",
          "custom_css": ".footer__content.section {\npadding-top: 64px;\npadding-bottom: 64px;\nborder-bottom: 1px solid white;\n}\n\n.footer__extra-content.section {\nbackground-color: #171B2B;\nmargin-left: 0;\nmargin-right: 0;\nwidth: 100%;\nmax-width: 100%;\n}\n\n.footer__credits {\ncolor:#FFF;\n}\n.footer__credits.two-thirds.column.small-down--one-whole {\ncolor: #fff;\n}\n\n.footer__heading {\nfont-size: 18px;\nline-height: 24px;\nletter-spacing: 2px;\nfont-weight: 700;\ntext-transform: uppercase;\n}\n\n.footer__menu-link {\nmargin-top: 8px;\nfont-size: 14px;\n}\n\n.footer__menu-link: hover {\ntext-color: #F7FB4E;\n}"
        }
      },
      "product__sidebar": {
        "type": "product__sidebar",
        "blocks": {
          "product__sidebar-0": {
            "type": "featured_promo",
            "settings": {
              "promo_background": "#eeeeee",
              "promo_text": "#000000",
              "promo_image": "",
              "richtext": "<p>Use this area for promotional information.<\/p>",
              "promo_link": "",
              "button_label": "Shop now",
              "button_style": "button--primary"
            }
          },
          "product__sidebar-1": {
            "type": "menu",
            "settings": {
              "menu": ""
            }
          },
          "product__sidebar-2": {
            "type": "text",
            "settings": {
              "title": "Heading",
              "text": "<p>Text area can be used for details about blog authors or general information.<\/p>"
            }
          }
        },
        "block_order": [
          "product__sidebar-0",
          "product__sidebar-1",
          "product__sidebar-2"
        ],
        "settings": {
          "show_sidebar": false,
          "css_class": "",
          "custom_css": ""
        }
      },
      "product__main": {
        "type": "product__main",
        "blocks": {
          "1587815431543": {
            "type": "icons",
            "settings": {}
          },
          "1587816470639": {
            "type": "top_banner",
            "settings": {}
          },
          "1587816474315": {
            "type": "benefits",
            "settings": {}
          },
          "1587816477807": {
            "type": "middle_banner",
            "settings": {}
          },
          "1587816480502": {
            "type": "chess",
            "settings": {}
          },
          "1587816484062": {
            "type": "video",
            "settings": {}
          },
          "1587816490996": {
            "type": "reviews",
            "settings": {}
          },
          "1588185282129": {
            "type": "faq",
            "settings": {}
          },
          "1587816494643": {
            "type": "fbt",
            "settings": {}
          },
          "1587816499047": {
            "type": "similar",
            "settings": {}
          },
          "1587816502353": {
            "type": "bottom_banner",
            "settings": {}
          },
          "1587816558638": {
            "type": "browsing",
            "settings": {}
          }
        },
        "block_order": [
          "1587815431543",
          "1587816470639",
          "1587816474315",
          "1587816477807",
          "1587816480502",
          "1587816484062",
          "1587816490996",
          "1588185282129",
          "1587816494643",
          "1587816499047",
          "1587816502353",
          "1587816558638"
        ],
        "settings": {
          "product_breadcrumb": true,
          "display_thumbnails": true,
          "gallery_arrows": false,
          "enable_zoom": true,
          "enable_product_lightbox": true,
          "slideshow_speed": 0,
          "slideshow_transition": "slide",
          "thumbnail_position": "bottom-thumbnails",
          "enable_thumbnail_slider": true,
          "display_vendor": false,
          "display_sku": false,
          "enable_shopify_product_badges": true,
          "display_savings": true,
          "display_collections": false,
          "display_type": false,
          "display_tags": false,
          "display_social_buttons": false,
          "product_description_position": "bottom",
          "show_payment_button": true,
          "product_images_position": "left",
          "set_product_height": false,
          "product_height": 500,
          "video_looping": false,
          "width": "standard",
          "padding_top": 20,
          "padding_bottom": 20,
          "animation": "none",
          "css_class": "",
          "custom_css": ""
        }
      },
      "product__recommendations": {
        "type": "product__recommendations",
        "settings": {
          "show_product_recommendations": true,
          "product_recommendations_style": "grid",
          "product_recommendations_heading": "You may also like",
          "products_per": 3,
          "recommended_products_limit": 4,
          "align_height": false,
          "collection_height": 200
        }
      },
      "collection__banner": {
        "type": "collection__banner",
        "settings": {
          "show_banner": true,
          "image": "",
          "image_darken": true,
          "subtitle": "",
          "width": "wide",
          "banner_height": "small",
          "padding_top": 0,
          "padding_bottom": 0,
          "css_class": "",
          "custom_css": ""
        }
      },
      "collection__sidebar": {
        "type": "collection__sidebar",
        "blocks": {
          "collection__sidebar-0": {
            "type": "featured_promo",
            "settings": {
              "promo_background": "#eeeeee",
              "promo_text": "#000000",
              "promo_image": "",
              "richtext": "<p>Use this area for promotional information.<\/p>",
              "promo_link": "",
              "button_label": "Shop now",
              "button_style": "button--primary"
            }
          },
          "collection__sidebar-1": {
            "type": "menu",
            "settings": {
              "menu": ""
            }
          },
          "collection__sidebar-2": {
            "type": "text",
            "settings": {
              "title": "Heading",
              "text": "<p>Text area can be used for details about blog authors or general information.<\/p>"
            }
          }
        },
        "block_order": [
          "collection__sidebar-0",
          "collection__sidebar-1",
          "collection__sidebar-2"
        ],
        "settings": {
          "show_sidebar": false,
          "css_class": "",
          "custom_css": ""
        }
      },
      "collection__main": {
        "type": "collection__main",
        "settings": {
          "collection_breadcrumb": true,
          "collection_tags": false,
          "collection_sort": false,
          "show_promo_banner": false,
          "image": "",
          "image_darken": true,
          "promo_title": "Special sale on now!",
          "promo_text": "<p>Description of promotion with lots of details.<\/p>",
          "banner_height": "medium",
          "align_height": false,
          "collection_height": 200,
          "products_per_row": 4,
          "mobile_products_per_row": "1",
          "pagination_limit": 48,
          "pagination_type": "basic_pagination",
          "width": "standard",
          "padding_top": 80,
          "padding_bottom": 80,
          "css_class": "",
          "custom_css": ".sale-sticker {\nwidth: 64px;\nheight: 64px;\nalign-items: center;\nborder-radius: 60px;\n}\n\n.sticker-text { font-weight: 600;\ncolor: white;\n}\n\n.money {\nfont-size: 18px;\nfont-weight: 600;\ncolor: #171B2B;\n}"
        }
      },
      "header-centered__top-bar": {
        "type": "header-centered__top-bar",
        "settings": {
          "show_social_icons": false,
          "text": "<p>Some text here<\/p>",
          "font": "montserrat_n6",
          "font_style": "none",
          "font_size": 14,
          "letter_spacing": 0,
          "top_bar_background": "rgba(0,0,0,0)",
          "top_bar_link": "rgba(0,0,0,0)",
          "top_bar_link_hover": "rgba(0,0,0,0)",
          "top_bar_text": "rgba(0,0,0,0)",
          "display_search": false,
          "icon_style": "icons",
          "cart_button_background": "#f7fb4e",
          "cart_button_text": "#171e29",
          "css_class": "",
          "custom_css": ""
        }
      },
      "header-centered": {
        "type": "header-centered",
        "settings": {
          "logo": "shopify:\/\/shop_images\/logo_dcab9800-04f1-48f5-9216-8bbd2845ae65.png",
          "logo_inverted": "shopify:\/\/shop_images\/victorem-logo-inverted.png",
          "logo_width": 130,
          "logo_position": "between",
          "main_linklist": "main-menu-1",
          "menu_spacing": "minimum",
          "enable_overlay": false,
          "show_text_shadow": false,
          "overlay_background": "#ffffff",
          "overlay_background_opacity": 0,
          "overlay_link_color": "rgba(0,0,0,0)",
          "overlay_link_hover_color": "rgba(0,0,0,0)",
          "overlay_logo": "shopify:\/\/shop_images\/Frame.png",
          "overlay_logo_width": 130,
          "enable_sticky": false,
          "sticky_background_opacity": 50,
          "scroll_logo_width": 200,
          "width": "standard",
          "css_class": "",
          "custom_css": ".header.header--centered {\npadding: 24px;\n}\n\n\n\n.navbar-link {\npadding: 1rem 2.5rem;\n}\n\n.mobile-header {\npadding: 16px 0px;\n}\n\n.mobile-header__logo {\nwidth: 120px;"
        }
      },
      "header-search-focus": {
        "type": "header-search-focus",
        "settings": {
          "logo": "",
          "logo_width": 200,
          "search_background": "#363636",
          "search_icon": "#ffffff",
          "icon_style": "icons",
          "main_linklist": "main-menu",
          "menu_alignment": "start",
          "enable_sticky": false,
          "sticky_background_opacity": 100,
          "scroll_logo_width": 200,
          "width": "standard",
          "css_class": "",
          "custom_css": ""
        }
      },
      "product-image-scroll__main": {
        "type": "product-image-scroll__main",
        "blocks": {
          "product-image-scroll__main-0": {
            "type": "recommended_products",
            "settings": {
              "width": "wide",
              "padding_top": 20,
              "padding_bottom": 20,
              "animation": "none"
            }
          }
        },
        "block_order": [
          "product-image-scroll__main-0"
        ],
        "settings": {
          "product_breadcrumb": false,
          "enable_zoom": true,
          "enable_product_lightbox": true,
          "display_thumbnails": true,
          "slideshow_speed": 0,
          "slideshow_transition": "slide",
          "enable_thumbnail_slider": true,
          "display_vendor": false,
          "display_sku": false,
          "enable_shopify_product_badges": false,
          "display_savings": true,
          "display_collections": false,
          "display_type": false,
          "display_tags": false,
          "display_social_buttons": true,
          "product_description_position": "top",
          "show_payment_button": true,
          "product_images_position": "left",
          "set_product_height": false,
          "product_height": 500,
          "video_looping": false,
          "width": "standard",
          "padding_top": 20,
          "padding_bottom": 0,
          "css_class": "",
          "custom_css": ""
        }
      },
      "1587584632031": {
        "type": "index__image-with-text-overlay",
        "settings": {
          "link": "",
          "image": "shopify:\/\/shop_images\/hero-section_fad88e10-f018-4d97-ae3b-9b62d53ea5c5.jpg",
          "mobile_image": "shopify:\/\/shop_images\/hero-section-mobile.jpg",
          "pretext": "",
          "title": "Your companion on a road to victory!",
          "subtitle": "<p>#1 Premium Resistence &amp; Pull up bands<\/p>",
          "pretext_color": "#ffffff",
          "heading_color": "#ffffff",
          "subheading_color": "#ffffff",
          "text_alignment": "center",
          "text_horizontal_position": "center",
          "text_vertical_position": "top",
          "background_color": "#ffffff",
          "background_opacity": 0,
          "border_color": "#ffffff",
          "border_width": 0,
          "text_width": 40,
          "button_1": "Shop Now",
          "button_1_link": "shopify:\/\/collections\/all-products",
          "button_1_style": "button--primary",
          "button_2": "",
          "button_2_link": "",
          "button_2_style": "button--secondary",
          "mobile_image_crop": "center",
          "mobile_text_below_image": false,
          "pretext_color_mobile": "rgba(0,0,0,0)",
          "heading_color_mobile": "rgba(0,0,0,0)",
          "subheading_color_mobile": "rgba(0,0,0,0)",
          "width": "wide",
          "padding_top": 0,
          "padding_bottom": 0,
          "padding_left": 0,
          "padding_right": 0,
          "animation": "none",
          "css_class": "",
          "custom_css": ".button--primary {\npadding: 20px;\n}\n\n.image-with-text-overlay__subheading {\npadding-top: 24px;\nmargin-bottom: 40px;\n}"
        }
      },
      "1587620514450": {
        "type": "index__video",
        "settings": {
          "aspect_ratio": "4:3",
          "autoplay": false,
          "autoloop": false,
          "mute_video": false,
          "controls": true,
          "iframe_video": "",
          "html5_video": "",
          "image": "shopify:\/\/shop_images\/Mask_Group_1_2.jpg",
          "pretext": "",
          "title": "Victory is the path you chose to take",
          "subtitle": "",
          "pretext_color": "#ffffff",
          "heading_color": "#ffffff",
          "subheading_color": "#ffffff",
          "horizontal_text_position": "center",
          "vertical_text_position": "center",
          "text_align": "center",
          "button_label": "Play Video",
          "button_style": "button--secondary",
          "overlay_style": "none",
          "video_overlay_color": "#ffffff",
          "gradient": "rgba(0,0,0,0)",
          "gradient_rotation": 180,
          "background_opacity": 77,
          "text_width": 70,
          "mobile_text_below_video": false,
          "pretext_color_mobile": "rgba(0,0,0,0)",
          "heading_color_mobile": "rgba(0,0,0,0)",
          "subheading_color_mobile": "rgba(0,0,0,0)",
          "width": "standard",
          "padding_top": 80,
          "padding_bottom": 0,
          "padding_left": 0,
          "padding_right": 0,
          "animation": "none",
          "css_class": "",
          "custom_css": ".button.button--secondary {\ncolor:white;\nborder-color: white;\npadding:20px;\nmax-width: 230px;\n}\n\n.title.video__title {\nmax-width: 600px;\nmargin: auto;\npadding-bottom: 40px;\n}\n\n.title.video__title { \nfont-size: 48px;\n}"
        }
      },
      "product-sections__main": {
        "type": "product-sections__main",
        "blocks": {
          "product-sections__main-0": {
            "type": "product_info",
            "settings": {
              "display_vendor": false,
              "display_sku": false,
              "enable_shopify_product_badges": false,
              "display_savings": true,
              "display_collections": false,
              "display_type": false,
              "display_tags": false,
              "display_social_buttons": true,
              "product_description_position": "top",
              "show_payment_button": true,
              "set_product_height": false,
              "product_height": 500,
              "video_looping": false,
              "width": "half",
              "padding_top": 0,
              "padding_bottom": 0,
              "padding_left": 0,
              "padding_right": 0,
              "animation": "none"
            }
          },
          "product-sections__main-1": {
            "type": "product_gallery",
            "settings": {
              "display_thumbnails": true,
              "gallery_arrows": true,
              "enable_zoom": true,
              "enable_product_lightbox": true,
              "slideshow_speed": 0,
              "slideshow_transition": "slide",
              "thumbnail_position": "bottom-thumbnails",
              "enable_thumbnail_slider": true,
              "width": "half",
              "padding_top": 0,
              "padding_bottom": 0,
              "padding_left": 0,
              "padding_right": 0,
              "animation": "none"
            }
          },
          "product-sections__main-2": {
            "type": "recommended_products",
            "settings": {
              "width": "wide",
              "padding_top": 20,
              "padding_bottom": 20,
              "animation": "none"
            }
          }
        },
        "block_order": [
          "product-sections__main-0",
          "product-sections__main-1",
          "product-sections__main-2"
        ],
        "settings": {
          "product_breadcrumb": false,
          "padding_top": 20,
          "padding_bottom": 0,
          "css_class": "",
          "custom_css": ""
        }
      },
      "1587660804989": {
        "type": "index__collection-list",
        "blocks": {
          "1587660804989-0": {
            "type": "collection",
            "settings": {
              "feature_collection": "resistance-bands",
              "image": "shopify:\/\/shop_images\/VICTOREM7048-removebg_1.jpg",
              "title": "",
              "button_label": "Shop Now"
            }
          },
          "1587660804989-1": {
            "type": "collection",
            "settings": {
              "feature_collection": "new-arrivals",
              "image": "shopify:\/\/shop_images\/Mask_Group.jpg",
              "title": "",
              "button_label": "Shop Now"
            }
          },
          "1587660804989-2": {
            "type": "collection",
            "settings": {
              "feature_collection": "combination-sets",
              "image": "shopify:\/\/shop_images\/Mask_Group-1.jpg",
              "title": "",
              "button_label": "Shop Now"
            }
          }
        },
        "block_order": [
          "1587660804989-0",
          "1587660804989-1",
          "1587660804989-2"
        ],
        "settings": {
          "collections_per_row": 3,
          "align_height": true,
          "collection_height": 400,
          "button_style": "button--primary",
          "overlay_background": "#939393",
          "overlay_background_opacity": 0,
          "overlay_text": "#ffffff",
          "collection_title_below_image": true,
          "width": "standard",
          "show_gutter": true,
          "padding_top": 80,
          "padding_bottom": 40,
          "animation": "none",
          "css_class": "",
          "custom_css": ".title {\nfont-size: 24px;\nline-height: 32px;\nletter-spacing: 2px;\ntext-transform: uppercase;\npadding-top: 20px\n}\n\n.button.button--primary {\npadding: 20px;\n}"
        }
      },
      "1587660989401": {
        "type": "index__rich-text",
        "settings": {
          "title": "We got everything to help you start winning",
          "heading_font": "montserrat_n7",
          "heading_color": "rgba(0,0,0,0)",
          "heading_alignment": "center",
          "heading_size": 48,
          "text": "<p>From pull up bands, leg and booty bands, to lacrosse gear and more.<\/p>",
          "text_font": "montserrat_n4",
          "text_color": "rgba(0,0,0,0)",
          "text_alignment": "center",
          "text_size": 14,
          "columns": 1,
          "button_label": "Shop all Products",
          "button_link": "shopify:\/\/collections\/all-products",
          "button_alignment": "center",
          "button_style": "button--primary",
          "background": "rgba(0,0,0,0)",
          "gradient": "rgba(0,0,0,0)",
          "gradient_rotation": 180,
          "width": "standard",
          "padding_top": 0,
          "padding_bottom": 80,
          "padding_left": 0,
          "padding_right": 0,
          "animation": "none",
          "css_class": "",
          "custom_css": ".rich-text__heading.title {\nmax-width: 600px;\nmargin: auto;\n}\n\n\n\n.rich-text__text {\npadding-top: 24px;\npadding-bottom: 24px;\n}\n\n.button.button--primary  {\nmax-width: 400px;\npadding: 20px;\n}\n\n@media only screen and (max-width: 798px) {\n.rich-text__heading title {\nfont-size: 32px;\nline-height: 40px;\n}\n}"
        }
      },
      "1587674935349": {
        "type": "index__slideshow-with-text",
        "blocks": {
          "1587674935349-0": {
            "type": "image",
            "settings": {
              "image": "shopify:\/\/shop_images\/Mask_Group_2_2.jpg",
              "pretext": "",
              "title": "Our Customers love us",
              "text": "<p><em>\"We use a variety of Victorem Gear products at our CrossFit box in West New York. They rarely snap, even with incredibly heavy use. The fabric covering makes them more comfortable than most other bands that have a tendency to dig in and leave nasty welts. Definitely a big upgrade from the traditional latex workout bands.\"<\/em><\/p>\n<p><\/p>\n<p><strong>Johnny R.&nbsp;&nbsp;Owner\/Head Coach @Crossfit ECF<\/strong><\/p>",
              "button_label": "",
              "button_link": ""
            }
          }
        },
        "block_order": [
          "1587674935349-0"
        ],
        "settings": {
          "background_color": "#ffffff",
          "text_color": "rgba(0,0,0,0)",
          "text_alignment": "left",
          "text_transition": "fadeIn",
          "button_style": "button--primary",
          "show_nav_buttons": true,
          "image_position": "right",
          "image_transition": "slide",
          "image_slideshow_speed": 8,
          "show_arrows": true,
          "width": "standard",
          "show_gutter": false,
          "padding_top": 40,
          "padding_bottom": 0,
          "css_class": "",
          "custom_css": ".text-slideshow__slide {\npadding: 40px 8px;"
        }
      },
      "1587674982175": {
        "type": "index__newsletter",
        "settings": {
          "display_first_name": false,
          "display_last_name": false,
          "newsletter_title": "A bad drive into the forest sounds like an adventure.",
          "newsletter_richtext": "<p>Stay up to date with the Victorem newsletter.<\/p>",
          "newsletter_section_text_align": "center",
          "background_color": "#ffffff",
          "text_color": "#000000",
          "background_image": "",
          "image_darken": false,
          "image": "",
          "image_cropping": "center",
          "image_position": "left",
          "width": "wide",
          "padding_top": 0,
          "padding_bottom": 80,
          "padding_left": 0,
          "padding_right": 0,
          "animation": "none",
          "css_class": "",
          "custom_css": ".button.button--primary {\npadding: 20px;\n}\n\n.newsletter__wrapper {\npadding: 0px;\n}\n\n.input  {\nheight: 62px !important;\n}"
        }
      },
      "1587707177162": {
        "type": "index__image-with-text",
        "blocks": {
          "1587707177162-0": {
            "type": "image",
            "settings": {
              "image": "shopify:\/\/shop_images\/trust-side-1.1.jpg",
              "image_crop": "right",
              "image_link": ""
            }
          },
          "1587707177162-2": {
            "type": "text",
            "settings": {
              "title": "Try our bands completely risk-free.",
              "heading_size": "regular",
              "text": "<p>A 90 day trial with free shipping and free returns whether you use the bands or not.<\/p>",
              "button_label": "",
              "link": "",
              "button_style": "button--primary",
              "background": "#f7fb4e",
              "text_color": "#171b2b",
              "alignment": "left",
              "vertical_position": "center"
            }
          }
        },
        "block_order": [
          "1587707177162-0",
          "1587707177162-2"
        ],
        "settings": {
          "width": "wide",
          "show_gutter": false,
          "padding_top": 0,
          "padding_bottom": 0,
          "animation": "none",
          "css_class": "",
          "custom_css": ".image-with-text__wrapper {\nmax-width: 464px;\n}\n\n.image-with-text__text-column {\njustify-content: center;\n}"
        }
      },
      "1587708318868": {
        "type": "index__image-with-text",
        "blocks": {
          "1587708318868-2": {
            "type": "text",
            "settings": {
              "title": "Made to the same standards as top-tier brands.",
              "heading_size": "regular",
              "text": "<p>Same manufactuers, same materials.<\/p>",
              "button_label": "",
              "link": "",
              "button_style": "button--primary",
              "background": "#f6f9ff",
              "text_color": "#171b2b",
              "alignment": "left",
              "vertical_position": "center"
            }
          },
          "1587708318868-0": {
            "type": "image",
            "settings": {
              "image": "shopify:\/\/shop_images\/trust-side-2.jpg",
              "image_crop": "left",
              "image_link": ""
            }
          }
        },
        "block_order": [
          "1587708318868-2",
          "1587708318868-0"
        ],
        "settings": {
          "width": "wide",
          "show_gutter": false,
          "padding_top": 0,
          "padding_bottom": 0,
          "animation": "none",
          "css_class": "",
          "custom_css": ".image-with-text__wrapper {\nmax-width: 464px;\n}\n\n.image-with-text__text-column {\njustify-content: center;\n}"
        }
      },
      "1587712817736": {
        "type": "index__image-with-text",
        "blocks": {
          "1587712817736-2": {
            "type": "text",
            "settings": {
              "title": "Gain Speed",
              "heading_size": "regular",
              "text": "<p>Rev up your speed with our high-performance workout bands. Designed for beginners, seasoned athletes and physical therapy &ndash; get started today!<\/p>",
              "button_label": "Shop Now",
              "link": "shopify:\/\/collections\/products-for-building-speed",
              "button_style": "button--primary",
              "background": "#4ebcc2",
              "text_color": "#ffffff",
              "alignment": "left",
              "vertical_position": "center"
            }
          },
          "1587712817736-1": {
            "type": "image",
            "settings": {
              "image": "shopify:\/\/shop_images\/gain-speed-1_2.jpg",
              "image_crop": "center",
              "image_link": ""
            }
          }
        },
        "block_order": [
          "1587712817736-2",
          "1587712817736-1"
        ],
        "settings": {
          "width": "wide",
          "show_gutter": false,
          "padding_top": 0,
          "padding_bottom": 0,
          "animation": "none",
          "css_class": "",
          "custom_css": ".button.button--primary {\npadding:20px;\nmax-width: 230px;\n}\n\n.image-with-text__wrapper {\nmax-width: 464px;\n}\n\n.image-with-text__text-column {\njustify-content: center;\n}"
        }
      },
      "1587738197415": {
        "type": "index__image-with-text",
        "blocks": {
          "1587738197415-1": {
            "type": "image",
            "settings": {
              "image": "shopify:\/\/shop_images\/Group_258_2.jpg",
              "image_crop": "none",
              "image_link": ""
            }
          },
          "1587738197415-2": {
            "type": "text",
            "settings": {
              "title": "INCREASE AGILITY",
              "heading_size": "regular",
              "text": "<p>Step up your agility game with our premium workout bands. Whether you&rsquo;re new to fitness, an old pro or rehabbing from injury, resistance bands are for you!<\/p>",
              "button_label": "Shop Now",
              "link": "shopify:\/\/collections\/products-for-building-agility",
              "button_style": "button--primary",
              "background": "#265890",
              "text_color": "#ffffff",
              "alignment": "left",
              "vertical_position": "center"
            }
          }
        },
        "block_order": [
          "1587738197415-1",
          "1587738197415-2"
        ],
        "settings": {
          "width": "wide",
          "show_gutter": false,
          "padding_top": 0,
          "padding_bottom": 0,
          "animation": "none",
          "css_class": "",
          "custom_css": ".button.button--primary {\npadding:20px;\nmax-width: 230px;\n}\n\n.image-with-text__wrapper {\nmax-width: 464px;\n}\n\n.image-with-text__text-column {\njustify-content: center;\n}"
        }
      },
      "1587739024490": {
        "type": "index__image-with-text",
        "blocks": {
          "1587739024490-2": {
            "type": "text",
            "settings": {
              "title": "BUILD STRENGTH & POWER",
              "heading_size": "regular",
              "text": "<p>No gym? No problem! Build strength and power with our most innovative workout bands. Tried, true and tested by athletes of all levels!<\/p>",
              "button_label": "Shop Now",
              "link": "shopify:\/\/collections\/products-for-building-strength",
              "button_style": "button--primary",
              "background": "#171b2b",
              "text_color": "#ffffff",
              "alignment": "left",
              "vertical_position": "center"
            }
          },
          "1587739024490-1": {
            "type": "image",
            "settings": {
              "image": "shopify:\/\/shop_images\/Group_259_1.jpg",
              "image_crop": "none",
              "image_link": ""
            }
          }
        },
        "block_order": [
          "1587739024490-2",
          "1587739024490-1"
        ],
        "settings": {
          "width": "wide",
          "show_gutter": false,
          "padding_top": 0,
          "padding_bottom": 40,
          "animation": "none",
          "css_class": "",
          "custom_css": ".button.button--primary {\npadding:20px;\nmax-width: 230px;\n}\n\n.image-with-text__wrapper {\nmax-width: 464px;\n}\n\n.image-with-text__text-column {\njustify-content: center;\n}"
        }
      },
      "1587753417056": {
        "type": "index__blog-posts",
        "settings": {
          "title": "Recent blog posts",
          "blog_widget_select": "lacrosse-training",
          "home_page_articles": 4,
          "blog_show_tags": false,
          "blog_author": false,
          "blog_read_time": true,
          "blog_date": true,
          "blog_comment_count": false,
          "blog_show_excerpt": true,
          "show-border": false,
          "button_label": "Read more",
          "button_type": "button--secondary",
          "width": "standard",
          "padding_top": 80,
          "padding_bottom": 60,
          "animation": "none",
          "css_class": "",
          "custom_css": ".title {\nfont-size: 18px;\nline-height: 24px;\ntext-transform: uppercase;\nletter-spacing:2px;\n}\n\n.image-element__wrap {\nmax-height: 160px;\n}\n\n.button.button--secondary {\npadding: 20px;\n}\n\n.featured-blog__title.title {\nfont-size: 32px;\nline-height: 40px;\npadding-bottom: 24px;\n}"
        }
      },
      "list-collections__main": {
        "type": "list-collections__main",
        "settings": {
          "collections_per_row": 3,
          "pagination_limit": 48,
          "pagination_type": "basic_pagination",
          "align_height": true,
          "collection_height": 400,
          "button_style": "button--secondary",
          "overlay_background": "#939393",
          "overlay_background_opacity": 0,
          "overlay_text": "#ffffff",
          "collection_title_below_image": true,
          "width": "standard",
          "padding_top": 80,
          "padding_bottom": 80,
          "css_class": "",
          "custom_css": ".title {\nfont-size: 18px;\nline-height: 24px;\nletter-spacing: 2px;\ntext-transform: uppercase;\n}\n\n.button.button--secondary {\npadding:20px;\n}\n\n.list-collection__title.title {\nfont-size:32px;\nline-height: 40px;\npadding-bottom: 24px;\n}"
        }
      },
      "blog__banner": {
        "type": "blog__banner",
        "settings": {
          "show_banner": true,
          "image": "shopify:\/\/shop_images\/bg-contact.jpg",
          "image_darken": false,
          "subtitle": "",
          "width": "wide",
          "banner_height": "small",
          "padding_top": 0,
          "padding_bottom": 0,
          "css_class": "",
          "custom_css": ""
        }
      },
      "blog__sidebar": {
        "type": "blog__sidebar",
        "blocks": {
          "blog__sidebar-0": {
            "type": "featured_promo",
            "settings": {
              "promo_background": "#eeeeee",
              "promo_text": "#000000",
              "promo_image": "",
              "richtext": "<p>Use this area for promotional information.<\/p>",
              "promo_link": "",
              "button_label": "Shop now",
              "button_style": "button--primary"
            }
          },
          "blog__sidebar-1": {
            "type": "menu",
            "settings": {
              "menu": ""
            }
          },
          "blog__sidebar-2": {
            "type": "text",
            "settings": {
              "title": "Heading",
              "text": "<p>Text area can be used for details about blog authors or general information.<\/p>"
            }
          }
        },
        "block_order": [
          "blog__sidebar-0",
          "blog__sidebar-1",
          "blog__sidebar-2"
        ],
        "settings": {
          "show_sidebar": false,
          "sidebar_position": "left",
          "css_class": "",
          "custom_css": ""
        }
      },
      "blog__main": {
        "type": "blog__main",
        "settings": {
          "blog_tags": false,
          "blog_posts_per_row": 3,
          "blog_posts_per_page": 12,
          "pagination_type": "basic_pagination",
          "blog_author": false,
          "blog_date": true,
          "blog_read_time": true,
          "blog_comment_count": true,
          "blog_show_tags": true,
          "blog_show_excerpt": true,
          "show_border": false,
          "button_label": "Read more",
          "button_type": "button--secondary",
          "width": "standard",
          "padding_top": 80,
          "padding_bottom": 80,
          "animation": "none",
          "css_class": "",
          "custom_css": ".title {\nfont-size: 18px;\nline-height: 24px;\ntext-transform: uppercase;\nletter-spacing:2px;\n}\n\n.button.button--secondary {\npadding: 20px;\n}"
        }
      },
      "page__main": {
        "type": "page__main",
        "settings": {
          "width": "standard",
          "padding_top": 40,
          "padding_bottom": 40,
          "css_class": "",
          "custom_css": ""
        }
      },
      "article__banner": {
        "type": "article__banner",
        "settings": {
          "show_banner": true,
          "image_darken": true,
          "width": "wide",
          "banner_height": "small",
          "padding_top": 0,
          "padding_bottom": 0,
          "css_class": "",
          "custom_css": ""
        }
      },
      "article__sidebar": {
        "type": "article__sidebar",
        "blocks": {
          "article__sidebar-0": {
            "type": "featured_promo",
            "settings": {
              "promo_background": "#eeeeee",
              "promo_text": "#000000",
              "promo_image": "",
              "richtext": "<p>Use this area for promotional information.<\/p>",
              "promo_link": "",
              "button_label": "Shop now",
              "button_style": "button--primary"
            }
          },
          "article__sidebar-1": {
            "type": "menu",
            "settings": {
              "menu": ""
            }
          },
          "article__sidebar-2": {
            "type": "text",
            "settings": {
              "title": "Heading",
              "text": "<p>Text area can be used for details about blog authors or general information.<\/p>"
            }
          }
        },
        "block_order": [
          "article__sidebar-0",
          "article__sidebar-1",
          "article__sidebar-2"
        ],
        "settings": {
          "show_sidebar": false,
          "sidebar_position": "left",
          "css_class": "",
          "custom_css": ""
        }
      },
      "article__main": {
        "type": "article__main",
        "settings": {
          "show_breadcrumb": true,
          "blog_author": true,
          "blog_date": true,
          "blog_read_time": true,
          "blog_comment_count": true,
          "show_tags": false,
          "show_featured_image": false,
          "width": "standard",
          "padding_top": 40,
          "padding_bottom": 40,
          "css_class": "",
          "custom_css": ""
        }
      },
      "page-contact__banner": {
        "type": "page-contact__banner",
        "settings": {
          "show_banner": true,
          "image": "shopify:\/\/shop_images\/bg-contact.jpg",
          "image_darken": false,
          "subtitle": "",
          "width": "wide",
          "banner_height": "medium",
          "padding_top": 0,
          "padding_bottom": 0,
          "css_class": "",
          "custom_css": ""
        }
      },
      "page-contact__main": {
        "type": "page-contact__main",
        "blocks": {
          "page-contact__main-0": {
            "type": "textfield",
            "settings": {
              "label": "Name",
              "required": true
            }
          },
          "page-contact__main-1": {
            "type": "email",
            "settings": {
              "label": "Email"
            }
          },
          "page-contact__main-2": {
            "type": "textarea",
            "settings": {
              "label": "Message",
              "required": true
            }
          }
        },
        "block_order": [
          "page-contact__main-0",
          "page-contact__main-1",
          "page-contact__main-2"
        ],
        "settings": {
          "content_image": "",
          "title": "Get in touch today",
          "content_text": "<p>Customize your contact form to suit your business! Add custom fields like a dropdown menu, checkbox, text fields and more, so that you can gather pertinent info from shoppers right from the get-go, to help answer their inquiries more effectively.<\/p>",
          "social_enable": true,
          "text_alignment": "left",
          "background": "#ffffff",
          "text_color": "#000000",
          "form_position": "right",
          "width": "standard",
          "padding_top": 80,
          "padding_bottom": 80,
          "css_class": "",
          "custom_css": ".button.button--primary {\npadding: 20px;\n}\n\n.one-half.medium-down--one-whole.column {\ndisplay:flex;\nalign-items: center;\n}\n\n.section__wrapper {\nbackground-image: url(\"https:\/\/cdn.shopify.com\/s\/files\/1\/2027\/3795\/files\/customer-testimonial.jpg?v=1587676127\") !important;"
        }
      },
      "page-contact__sections": {
        "type": "page-contact__sections",
        "settings": {}
      },
      "page-faq__banner": {
        "type": "page-faq__banner",
        "settings": {
          "show_banner": true,
          "image": "shopify:\/\/shop_images\/bg-contact.jpg",
          "image_darken": false,
          "subtitle": "",
          "width": "wide",
          "banner_height": "medium",
          "padding_top": 0,
          "padding_bottom": 0,
          "css_class": "",
          "custom_css": ""
        }
      },
      "page-faq__main": {
        "type": "page-faq__main",
        "settings": {
          "width": "standard",
          "padding_top": 80,
          "padding_bottom": 80,
          "css_class": "",
          "custom_css": ""
        }
      },
      "page-faq__column1": {
        "type": "page-faq__column1",
        "blocks": {
          "page-faq__column1-0": {
            "type": "heading",
            "settings": {
              "title": "SHIPPING"
            }
          },
          "page-faq__column1-1": {
            "type": "content",
            "settings": {
              "title": "Where do you currently ship to?",
              "answer": "<p>We currently ship to addresses within the U.S., U.S. Territories, and APO\/FPO\/DPO addresses. We do not ship outside of the US at this time.<\/p>"
            }
          },
          "page-faq__column1-2": {
            "type": "content",
            "settings": {
              "title": "What carriers do you use to ship?",
              "answer": "<p>We currently ship with USPS, UPS, FedEx and Amazon Logistics. We will select for you the optimal shipping method based on your location relative to our warehouse. At this time, we do not allow our customers to select a specific carrier.<\/p>"
            }
          },
          "page-faq__column1-3": {
            "type": "content",
            "settings": {
              "title": "How long do orders take to ship?",
              "answer": "<p>All orders take 1-2 business days to process and ship. Once shipped, transit time is typically 2-3 days for standard\/free shipping and 1-2 days for expedited shipping.<\/p>"
            }
          },
          "page-faq__column1-6": {
            "type": "content",
            "settings": {
              "title": "How are your shipping costs calculated?",
              "answer": "<p>All Victorem Gear orders are eligible for free standard shipping within the US. Orders placed with standard shipping take 1-2 days to process and will be in transit for 1-3 days.<\/p>"
            }
          },
          "page-faq__column1-5": {
            "type": "content",
            "settings": {
              "title": "Are there expedited shipping options available?",
              "answer": "<p>All Victorem Gear orders are eligible for $10.00 flat rate expedited shipping within the US. Orders placed with expedited shipping take 1 day to process and will be in transit for 1-2 days.<\/p>"
            }
          },
          "page-faq__column1-4": {
            "type": "heading",
            "settings": {
              "title": "RETURNS"
            }
          },
          "page-faq__column1-7": {
            "type": "content",
            "settings": {
              "title": "What is your return policy?",
              "answer": "<p>We are proud to offer an unconditional guarantee on all Victorem Gear products. All returns will be accepted for 30 days from the date of shipment for any reason. Items are not eligible to be returned after 30 days from the date of shipment has elapsed. To initiate a return, please&nbsp;<a href=\"https:\/\/victoremgear.com\/pages\/contact-us\" title=\"Contact Us\">contact us<\/a>.<\/p>"
            }
          },
          "1587938893543": {
            "type": "content",
            "settings": {
              "title": "How long does it take to process an exchange?",
              "answer": "<p>To initiate an exchange, please return your Victorem Gear product for a refund and place a new order for the exchange items. You do not have to wait for your refund to be completed in order to purchase your new items.<\/p>\n<p><\/p>\n<p><\/p>"
            }
          },
          "1587939050290": {
            "type": "content",
            "settings": {
              "title": "How long does it take to process a return\/refund?",
              "answer": "<p>All returns and refunds are processed within 48 hours of receipt of goods. Refunds can only be processed on your original form of payment. It may take up to 7 days for your refund to appear in your account or on your statement. To initiate a return, please&nbsp;<a href=\"https:\/\/victoremgear.com\/pages\/contact-us\" title=\"Contact Us\">contact us<\/a>.<\/p>"
            }
          },
          "1587939053583": {
            "type": "heading",
            "settings": {
              "title": "PAYMENTS"
            }
          },
          "1587939068964": {
            "type": "content",
            "settings": {
              "title": "What payment methods do you accept?",
              "answer": "<p>We accept the following payment methods: Visa, Mastercard, American Express, Discover, JCB, Diners Club, Shopify Pay, Apple Pay and Google Pay.<\/p>"
            }
          },
          "1587939072319": {
            "type": "content",
            "settings": {
              "title": "Is there another way to place orders besides online?",
              "answer": "<p>Victorem Gear products are also available at the&nbsp;<a href=\"https:\/\/www.amazon.com\/stores\/Victorem\/Victorem\/page\/C2E557DB-FA75-4379-9946-11EB743B5BFF\" title=\"https:\/\/www.amazon.com\/stores\/Victorem\/Victorem\/page\/C2E557DB-FA75-4379-9946-11EB743B5BFF\">Victorem Gear Store on Amazon.com<\/a>.<\/p>"
            }
          },
          "1587939075211": {
            "type": "content",
            "settings": {
              "title": "Is my payment on your site secure?",
              "answer": "<p>Your payments on Victorem Gear are processed via Shopify Payments. Shopify Payments is certified Level 1 PCI DSS compliant, meeting all six categories of PCI standards:<\/p>\n<p><br>&nbsp;&nbsp;&nbsp; &bull;&nbsp;&nbsp; &nbsp;Maintain a secure network<br>&nbsp;&nbsp; &nbsp;&bull;&nbsp;&nbsp; &nbsp;Maintain a vulnerability management program<br>&nbsp;&nbsp; &nbsp;&bull;&nbsp;&nbsp; &nbsp;Regularly monitor and test networks<br>&nbsp;&nbsp; &nbsp;&bull;&nbsp;&nbsp; &nbsp;Protect cardholder data<br>&nbsp;&nbsp; &nbsp;&bull;&nbsp;&nbsp; &nbsp;Implement strong access control measures<br>&nbsp;&nbsp; &nbsp;&bull;&nbsp;&nbsp; &nbsp;Maintain an information security policy<br><br>Therefore, your payment information is highly secure on our website. Even though no payment processor is 100% secure, you can feel confident that your information is very well protected in the Shopify Payment network.<\/p>"
            }
          },
          "1587939079438": {
            "type": "content",
            "settings": {
              "title": "Do you have a money back guarantee policy?",
              "answer": "<p>Yes,&nbsp;we&nbsp;give full refunds for products that didn't meet customer expectations.<\/p>"
            }
          },
          "1587939098511": {
            "type": "heading",
            "settings": {
              "title": "PRODUCT SUPPORT"
            }
          },
          "1587939101337": {
            "type": "content",
            "settings": {
              "title": "Are all your products in stock?",
              "answer": "<p>Yes, all products listed on this website are in stock and available to ship immediately.<\/p>"
            }
          },
          "1587939103943": {
            "type": "content",
            "settings": {
              "title": "Do you have gift certficates for purchase?",
              "answer": "<p>No.<\/p>"
            }
          },
          "1587939106957": {
            "type": "content",
            "settings": {
              "title": "Do you offer promotions and\/or discounts?",
              "answer": "<p>Yes, we offer $10.00 off your first order for going our mailing list. To get the discount, please sign up here.<\/p>"
            }
          },
          "1587939109683": {
            "type": "content",
            "settings": {
              "title": "Can my gift certficate or coupon code be used to purchase Victorem products on Amazon?",
              "answer": "<p>Our e-gift cards and coupon codes are only eligible to be used on this website, not on Amazon.com or any other Victorem authorized retailer.<\/p>"
            }
          },
          "1587939113779": {
            "type": "heading",
            "settings": {
              "title": "ORDER SUPPORT"
            }
          },
          "1587939120143": {
            "type": "content",
            "settings": {
              "title": "Can I change my order after I place it?",
              "answer": "<p>Once you place your order, you may cancel it at any time before it ships and then simply place a new order. We cannot change orders once they are placed. To cancel an order, please&nbsp;<a href=\"https:\/\/victoremgear.com\/pages\/contact-us\" title=\"Contact Us\">contact us<\/a>.<br><br>If your order has already shipped, you may return your order at any time within 30 days of purchase and exchange for a new item by placing a new order.<\/p>"
            }
          },
          "1587939124267": {
            "type": "content",
            "settings": {
              "title": "Can I track the status of my order online?",
              "answer": "<p>When you place your order, you will receive a link with the status of your order. Please use that link to view the latest status or track your order.<\/p>"
            }
          },
          "1587939126925": {
            "type": "content",
            "settings": {
              "title": "Do you provide customer service by phone?",
              "answer": "<p>At the moment, we only provide customer service by email. To reach customer service, please&nbsp;<a href=\"https:\/\/victoremgear.com\/pages\/contact-us\" title=\"Contact Us\">contact us<\/a>.<\/p>"
            }
          },
          "1587939129960": {
            "type": "content",
            "settings": {
              "title": "Do you provide customer service by email?",
              "answer": "<p>Yes, to reach customer service, please&nbsp;<a href=\"https:\/\/victoremgear.com\/pages\/contact-us\" title=\"Contact Us\">contact us<\/a>.<\/p>"
            }
          }
        },
        "block_order": [
          "page-faq__column1-0",
          "page-faq__column1-1",
          "page-faq__column1-2",
          "page-faq__column1-3",
          "page-faq__column1-6",
          "page-faq__column1-5",
          "page-faq__column1-4",
          "page-faq__column1-7",
          "1587938893543",
          "1587939050290",
          "1587939053583",
          "1587939068964",
          "1587939072319",
          "1587939075211",
          "1587939079438",
          "1587939098511",
          "1587939101337",
          "1587939103943",
          "1587939106957",
          "1587939109683",
          "1587939113779",
          "1587939120143",
          "1587939124267",
          "1587939126925",
          "1587939129960"
        ],
        "settings": {
          "padding_top": 0,
          "padding_bottom": 0,
          "css_class": "",
          "custom_css": ""
        }
      },
      "page-faq__column2": {
        "type": "page-faq__column2",
        "settings": {
          "padding_top": 0,
          "padding_bottom": 0,
          "css_class": "",
          "custom_css": ""
        }
      },
      "trust-badges": {
        "type": "trust-badges",
        "blocks": {
          "1587892033092": {
            "type": "select",
            "settings": {
              "trust-badge-icon": "delivery.svg",
              "trust-badge-text": "Ships anywhere Worldwide"
            }
          },
          "1587892034425": {
            "type": "select",
            "settings": {
              "trust-badge-icon": "commerce-and-shopping.svg",
              "trust-badge-text": "Safe & Secure checkout"
            }
          },
          "1587892035756": {
            "type": "select",
            "settings": {
              "trust-badge-icon": "shipping-and-delivery.svg",
              "trust-badge-text": "100% Satisfaction Guarantee"
            }
          }
        },
        "block_order": [
          "1587892033092",
          "1587892034425",
          "1587892035756"
        ],
        "settings": {
          "show-trust-badges": true,
          "trust-badges-background-color": "",
          "trust-badges-color": "",
          "trust-badge-font-size": 16,
          "mobile-trust-badge-font-size": 14,
          "trust-badge-line-height": 24,
          "mobile-trust-badge-line-height": 16
        }
      },
      "cart__banner": {
        "type": "cart__banner",
        "settings": {
          "show_banner": true,
          "image": "shopify:\/\/shop_images\/bg-contact.jpg",
          "image_darken": false,
          "subtitle": "",
          "width": "wide",
          "banner_height": "small",
          "padding_top": 0,
          "padding_bottom": 0,
          "css_class": "",
          "custom_css": ""
        }
      },
      "cart__main": {
        "type": "cart__main",
        "blocks": {
          "1587936066048": {
            "type": "featured_collection",
            "settings": {
              "title": "Featured collection",
              "collection": "joe-schoberts-picks",
              "products_per": 4,
              "mobile_products_per_row": "1",
              "products_limit": 8,
              "align_height": false,
              "collection_height": 200,
              "collection_style": "grid",
              "width": "standard",
              "show_gutter": true,
              "padding_top": 0,
              "padding_bottom": 80,
              "animation": "none"
            }
          }
        },
        "block_order": [
          "1587936066048"
        ],
        "settings": {
          "display_product_quantity_cart": true,
          "display_savings": true,
          "cart_message": "",
          "width": "standard",
          "padding_top": 80,
          "padding_bottom": 80,
          "css_class": "",
          "custom_css": ".card-content {\npadding-top: 64px;\npadding-bottom: 64px;\n}\n\n.h2 {\nfont-size: 14px;\n}\n\n.button.add_to_cart.checkout {\npadding: 20px;\nheight: 100%;\n}\n\n.sale-sticker {\nwidth: 64px;\nheight: 64px;\nalign-items: center;\nborder-radius: 60px;\n}\n\n.sticker-text { font-weight: 600;\ncolor: white;\n}"
        }
      },
      "404__banner": {
        "type": "404__banner",
        "settings": {
          "show_banner": false,
          "image": "",
          "image_darken": false,
          "width": "wide",
          "banner_height": "medium",
          "padding_top": 0,
          "padding_bottom": 0,
          "css_class": "",
          "custom_css": ""
        }
      },
      "404__main": {
        "type": "404__main",
        "settings": {
          "not_found_text": "<p>We're sorry, but the page you requested could not be found.<\/p><p>Try searching or <a href='{{ routes.all_products_collection_url }}'>continue shopping<\/a>.<\/p>",
          "display_search_field": true,
          "width": "standard",
          "padding_top": 40,
          "padding_bottom": 40,
          "css_class": "",
          "custom_css": ""
        }
      },
      "popup": {
        "type": "popup",
        "settings": {
          "show_close_icon": true,
          "show_popup_on_mobile": true,
          "display_border": false,
          "border_color": "#cccccc",
          "border_width": 10,
          "newsletter_title": "Subscribe",
          "newsletter_text": "<p>Sign up to get the latest on sales, new releases and more …<\/p>",
          "newsletter_section_text_align": "center",
          "text_color": "#000000",
          "background_color": "#ffffff",
          "show_signup_form": true,
          "display_first_name": true,
          "display_last_name": true,
          "image": "",
          "image_cropping": "center",
          "image_position": "left",
          "overlay_color": "#000000",
          "overlay_background_opacity": 80,
          "popup_delay": 2,
          "popup_days_to_hide": "30",
          "animation": "none",
          "css_class": "",
          "custom_css": ""
        }
      },
      "blog__products": {
        "type": "blog__products",
        "settings": {}
      },
      "index__video": {
        "type": "index__video",
        "settings": {
          "aspect_ratio": "16:9",
          "autoplay": false,
          "autoloop": true,
          "mute_video": false,
          "controls": true,
          "iframe_video": "https:\/\/vimeo.com\/405804117",
          "html5_video": "",
          "image": "shopify:\/\/shop_images\/644_x_644_Pull_Up_Bands-06.jpg",
          "pretext": "",
          "title": "Featured video",
          "subtitle": "Embed a Youtube or Vimeo video.",
          "pretext_color": "#000000",
          "heading_color": "#000000",
          "subheading_color": "#000000",
          "horizontal_text_position": "center",
          "vertical_text_position": "center",
          "text_align": "center",
          "button_label": "Play video",
          "button_style": "button--secondary",
          "overlay_style": "text_only",
          "video_overlay_color": "#ffffff",
          "gradient": "rgba(0,0,0,0)",
          "gradient_rotation": 180,
          "background_opacity": 77,
          "text_width": 70,
          "mobile_text_below_video": true,
          "pretext_color_mobile": "rgba(0,0,0,0)",
          "heading_color_mobile": "rgba(0,0,0,0)",
          "subheading_color_mobile": "rgba(0,0,0,0)",
          "width": "wide",
          "padding_top": 20,
          "padding_bottom": 0,
          "padding_left": 0,
          "padding_right": 0,
          "animation": "none",
          "css_class": "",
          "custom_css": ""
        }
      }
    },
    "content_for_index": [
      "1587584632031",
      "1587708318868",
      "1587707177162",
      "1587660804989",
      "1587660989401",
      "1587712817736",
      "1587738197415",
      "1587739024490",
      "1587620514450",
      "1587674935349",
      "1587753417056",
      "1587674982175"
    ]
  }
}